10 50 245
0 2	0 7	0 9	0 18	0 19	0 24	0 27	0 28	0 35	0 42	0 48	1 3	1 7	1 17	1 20	1 21	1 22	1 25	1 30	1 34	1 43	2 6	2 8	2 10	2 11	2 14	2 19	2 28	2 31	2 33	2 41	2 45	2 46	3 4	3 17	3 21	3 26	3 32	3 36	3 37	3 39	3 40	3 42	3 43	4 5	4 16	4 19	4 20	4 23	4 31	4 39	4 40	5 11	5 12	5 15	5 17	5 19	5 23	5 27	5 31	5 40	5 42	5 49	6 10	6 14	6 26	6 34	6 45	6 46	6 47	7 9	7 21	7 23	7 26	7 29	7 32	7 34	7 49	8 16	8 22	8 45	8 49	9 17	9 28	9 31	9 39	9 42	9 48	9 49	10 15	10 28	10 29	10 30	10 33	10 44	10 45	10 47	11 16	11 23	11 32	11 48	12 21	12 22	12 25	12 29	12 30	12 36	12 37	12 39	12 41	12 43	12 47	13 22	13 35	13 38	13 40	13 43	13 48	14 17	14 19	14 20	14 23	14 27	14 28	14 37	15 17	15 24	15 36	15 39	15 40	15 47	16 20	16 31	16 35	16 37	16 39	16 43	16 45	17 21	17 23	17 27	17 32	17 42	17 47	17 48	18 26	18 27	18 31	18 48	18 49	19 27	19 28	19 29	19 35	19 38	19 39	20 23	20 25	20 30	20 32	20 33	20 35	20 40	21 28	21 30	21 33	21 34	22 25	22 29	22 33	22 37	22 39	22 40	23 29	23 30	23 40	23 43	23 45	24 28	24 29	24 30	24 41	24 43	24 44	24 45	25 28	25 40	25 45	25 46	25 48	26 29	26 41	26 45	27 34	27 35	27 37	27 40	28 33	28 43	28 47	29 42	29 44	30 31	30 32	30 48	31 39	31 42	31 48	32 35	32 39	32 43	32 45	33 35	33 41	33 47	33 48	34 43	34 44	35 37	35 40	35 45	36 38	36 41	36 49	37 40	37 42	37 43	37 44	37 49	38 44	39 43	39 45	40 42	40 43	40 44	40 45	40 46	42 46	42 48	44 45	44 46	44 47	45 48	45 49	46 47	
0 2	0 7	0 9	0 18	0 19	0 24	0 27	0 28	0 35	0 42	0 48	1 3	1 7	1 17	1 20	1 21	1 22	1 25	1 30	1 34	1 43	2 6	2 8	2 10	2 11	2 14	2 19	2 28	2 31	2 33	2 41	2 45	2 46	3 4	3 17	3 21	3 26	3 32	3 36	3 37	3 39	3 40	3 42	3 43	4 5	4 16	4 19	4 20	4 23	4 31	4 39	4 40	5 11	5 12	5 15	5 17	5 19	5 23	5 27	5 31	5 40	5 42	5 49	6 10	6 14	6 26	6 34	6 45	6 46	6 47	7 9	7 21	7 23	7 26	7 29	7 32	7 34	7 49	8 16	8 22	8 45	8 49	9 17	9 28	9 31	9 39	9 42	9 48	9 49	10 15	10 28	10 29	10 30	10 33	10 44	10 45	10 47	11 16	11 23	11 32	11 48	12 21	12 22	12 25	12 29	12 30	12 36	12 37	12 39	12 41	12 43	12 47	13 22	13 35	13 38	13 40	13 43	13 48	14 17	14 19	14 20	14 23	14 27	14 28	14 37	15 17	15 24	15 36	15 39	15 40	15 47	16 20	16 31	16 35	16 37	16 39	16 43	16 45	17 21	17 23	17 27	17 32	17 42	17 47	17 48	18 26	18 27	18 31	18 48	18 49	19 27	19 28	19 29	19 35	19 38	19 39	20 23	20 25	20 30	20 32	20 33	20 35	20 40	21 28	21 30	21 33	21 34	22 25	22 29	22 33	22 37	22 39	22 40	23 29	23 30	23 40	23 43	23 45	24 28	24 29	24 30	24 41	24 43	24 44	24 45	25 28	25 40	25 45	25 46	25 48	26 29	26 41	26 45	27 34	27 35	27 37	27 40	28 33	28 43	28 47	29 42	29 44	30 31	30 32	30 48	31 39	31 42	31 48	32 35	32 39	32 43	32 45	33 35	33 41	33 47	33 48	34 43	34 44	35 37	35 40	35 45	36 38	36 41	36 49	37 40	37 42	37 43	37 44	37 49	38 44	39 43	39 45	40 42	40 43	40 44	40 45	40 46	42 46	42 48	44 45	44 46	44 47	45 48	45 49	46 47	
0 2	0 7	0 9	0 18	0 19	0 24	0 27	0 28	0 35	0 42	0 48	1 3	1 7	1 17	1 20	1 21	1 22	1 25	1 30	1 34	1 43	2 6	2 8	2 10	2 11	2 14	2 19	2 28	2 31	2 33	2 41	2 45	2 46	3 4	3 17	3 21	3 26	3 32	3 36	3 37	3 39	3 40	3 42	3 43	4 5	4 16	4 19	4 20	4 23	4 31	4 39	4 40	5 11	5 12	5 15	5 17	5 19	5 23	5 27	5 31	5 40	5 42	5 49	6 10	6 14	6 26	6 34	6 45	6 46	6 47	7 9	7 21	7 23	7 26	7 29	7 32	7 34	7 49	8 16	8 22	8 45	8 49	9 17	9 28	9 31	9 39	9 42	9 48	9 49	10 15	10 28	10 29	10 30	10 33	10 44	10 45	10 47	11 16	11 23	11 32	11 48	12 21	12 22	12 25	12 29	12 30	12 36	12 37	12 39	12 41	12 43	12 47	13 22	13 35	13 38	13 40	13 43	13 48	14 17	14 19	14 20	14 23	14 27	14 28	14 37	15 17	15 24	15 36	15 39	15 40	15 47	16 20	16 31	16 35	16 37	16 39	16 43	16 45	17 21	17 23	17 27	17 32	17 42	17 47	17 48	18 26	18 27	18 31	18 48	18 49	19 27	19 28	19 29	19 35	19 38	19 39	20 23	20 25	20 30	20 32	20 33	20 35	20 40	21 28	21 30	21 33	21 34	22 25	22 29	22 33	22 37	22 39	22 40	23 29	23 30	23 40	23 43	23 45	24 28	24 29	24 30	24 41	24 43	24 44	24 45	25 28	25 40	25 45	25 46	25 48	26 29	26 41	26 45	27 34	27 35	27 37	27 40	28 33	28 43	28 47	29 42	29 44	30 31	30 32	30 48	31 39	31 42	31 48	32 35	32 39	32 43	32 45	33 35	33 41	33 47	33 48	34 43	34 44	35 37	35 40	35 45	36 38	36 41	36 49	37 40	37 42	37 43	37 44	37 49	38 44	39 43	39 45	40 42	40 43	40 44	40 45	40 46	42 46	42 48	44 45	44 46	44 47	45 48	45 49	46 47	
0 2	0 7	0 9	0 18	0 19	0 24	0 27	0 28	0 35	0 42	0 48	1 3	1 7	1 17	1 20	1 21	1 22	1 25	1 30	1 34	1 43	2 6	2 8	2 10	2 11	2 14	2 19	2 28	2 31	2 33	2 41	2 45	2 46	3 4	3 17	3 21	3 26	3 32	3 36	3 37	3 39	3 40	3 42	3 43	4 5	4 16	4 19	4 20	4 23	4 31	4 39	4 40	5 11	5 12	5 15	5 17	5 19	5 23	5 27	5 31	5 40	5 42	5 49	6 10	6 14	6 26	6 34	6 45	6 46	6 47	7 9	7 21	7 23	7 26	7 29	7 32	7 34	7 49	8 16	8 22	8 45	8 49	9 17	9 28	9 31	9 39	9 42	9 48	9 49	10 15	10 28	10 29	10 30	10 33	10 44	10 45	10 47	11 16	11 23	11 32	11 48	12 21	12 22	12 25	12 29	12 30	12 36	12 37	12 39	12 41	12 43	12 47	13 22	13 35	13 38	13 40	13 43	13 48	14 17	14 19	14 20	14 23	14 27	14 28	14 37	15 17	15 24	15 36	15 39	15 40	15 47	16 20	16 31	16 35	16 37	16 39	16 43	16 45	17 21	17 23	17 27	17 32	17 42	17 47	17 48	18 26	18 27	18 31	18 48	18 49	19 27	19 28	19 29	19 35	19 38	19 39	20 23	20 25	20 30	20 32	20 33	20 35	20 40	21 28	21 30	21 33	21 34	22 25	22 29	22 33	22 37	22 39	22 40	23 29	23 30	23 40	23 43	23 45	24 28	24 29	24 30	24 41	24 43	24 44	24 45	25 28	25 40	25 45	25 46	25 48	26 29	26 41	26 45	27 34	27 35	27 37	27 40	28 33	28 43	28 47	29 42	29 44	30 31	30 32	30 48	31 39	31 42	31 48	32 35	32 39	32 43	32 45	33 35	33 41	33 47	33 48	34 43	34 44	35 37	35 40	35 45	36 38	36 41	36 49	37 40	37 42	37 43	37 44	37 49	38 44	39 43	39 45	40 42	40 43	40 44	40 45	40 46	42 46	42 48	44 45	44 46	44 47	45 48	45 49	46 47	
0 2	0 7	0 9	0 18	0 19	0 24	0 27	0 28	0 35	0 42	0 48	1 3	1 7	1 17	1 20	1 21	1 22	1 25	1 30	1 34	1 43	2 6	2 8	2 10	2 11	2 14	2 19	2 28	2 31	2 33	2 41	2 45	2 46	3 4	3 17	3 21	3 26	3 32	3 36	3 37	3 39	3 40	3 42	3 43	4 5	4 16	4 19	4 20	4 23	4 31	4 39	4 40	5 11	5 12	5 15	5 17	5 19	5 23	5 27	5 31	5 40	5 42	5 49	6 10	6 14	6 26	6 34	6 45	6 46	6 47	7 9	7 21	7 23	7 26	7 29	7 32	7 34	7 49	8 16	8 22	8 45	8 49	9 17	9 28	9 31	9 39	9 42	9 48	9 49	10 15	10 28	10 29	10 30	10 33	10 44	10 45	10 47	11 16	11 23	11 32	11 48	12 21	12 22	12 25	12 29	12 30	12 36	12 37	12 39	12 41	12 43	12 47	13 22	13 35	13 38	13 40	13 43	13 48	14 17	14 19	14 20	14 23	14 27	14 28	14 37	15 17	15 24	15 36	15 39	15 40	15 47	16 20	16 31	16 35	16 37	16 39	16 43	16 45	17 21	17 23	17 27	17 32	17 42	17 47	17 48	18 26	18 27	18 31	18 48	18 49	19 27	19 28	19 29	19 35	19 38	19 39	20 23	20 25	20 30	20 32	20 33	20 35	20 40	21 28	21 30	21 33	21 34	22 25	22 29	22 33	22 37	22 39	22 40	23 29	23 30	23 40	23 43	23 45	24 28	24 29	24 30	24 41	24 43	24 44	24 45	25 28	25 40	25 45	25 46	25 48	26 29	26 41	26 45	27 34	27 35	27 37	27 40	28 33	28 43	28 47	29 42	29 44	30 31	30 32	30 48	31 39	31 42	31 48	32 35	32 39	32 43	32 45	33 35	33 41	33 47	33 48	34 43	34 44	35 37	35 40	35 45	36 38	36 41	36 49	37 40	37 42	37 43	37 44	37 49	38 44	39 43	39 45	40 42	40 43	40 44	40 45	40 46	42 46	42 48	44 45	44 46	44 47	45 48	45 49	46 47	
0 2	0 7	0 9	0 18	0 19	0 24	0 27	0 28	0 35	0 42	0 48	1 3	1 7	1 17	1 20	1 21	1 22	1 25	1 30	1 34	1 43	2 6	2 8	2 10	2 11	2 14	2 19	2 28	2 31	2 33	2 41	2 45	2 46	3 4	3 17	3 21	3 26	3 32	3 36	3 37	3 39	3 40	3 42	3 43	4 5	4 16	4 19	4 20	4 23	4 31	4 39	4 40	5 11	5 12	5 15	5 17	5 19	5 23	5 27	5 31	5 40	5 42	5 49	6 10	6 14	6 26	6 34	6 45	6 46	6 47	7 9	7 21	7 23	7 26	7 29	7 32	7 34	7 49	8 16	8 22	8 45	8 49	9 17	9 28	9 31	9 39	9 42	9 48	9 49	10 15	10 28	10 29	10 30	10 33	10 44	10 45	10 47	11 16	11 23	11 32	11 48	12 21	12 22	12 25	12 29	12 30	12 36	12 37	12 39	12 41	12 43	12 47	13 22	13 35	13 38	13 40	13 43	13 48	14 17	14 19	14 20	14 23	14 27	14 28	14 37	15 17	15 24	15 36	15 39	15 40	15 47	16 20	16 31	16 35	16 37	16 39	16 43	16 45	17 21	17 23	17 27	17 32	17 42	17 47	17 48	18 26	18 27	18 31	18 48	18 49	19 27	19 28	19 29	19 35	19 38	19 39	20 23	20 25	20 30	20 32	20 33	20 35	20 40	21 28	21 30	21 33	21 34	22 25	22 29	22 33	22 37	22 39	22 40	23 29	23 30	23 40	23 43	23 45	24 28	24 29	24 30	24 41	24 43	24 44	24 45	25 28	25 40	25 45	25 46	25 48	26 29	26 41	26 45	27 34	27 35	27 37	27 40	28 33	28 43	28 47	29 42	29 44	30 31	30 32	30 48	31 39	31 42	31 48	32 35	32 39	32 43	32 45	33 35	33 41	33 47	33 48	34 43	34 44	35 37	35 40	35 45	36 38	36 41	36 49	37 40	37 42	37 43	37 44	37 49	38 44	39 43	39 45	40 42	40 43	40 44	40 45	40 46	42 46	42 48	44 45	44 46	44 47	45 48	45 49	46 47	
0 2	0 7	0 9	0 18	0 19	0 24	0 27	0 28	0 35	0 42	0 48	1 3	1 7	1 17	1 20	1 21	1 22	1 25	1 30	1 34	1 43	2 6	2 8	2 10	2 11	2 14	2 19	2 28	2 31	2 33	2 41	2 45	2 46	3 4	3 17	3 21	3 26	3 32	3 36	3 37	3 39	3 40	3 42	3 43	4 5	4 16	4 19	4 20	4 23	4 31	4 39	4 40	5 11	5 12	5 15	5 17	5 19	5 23	5 27	5 31	5 40	5 42	5 49	6 10	6 14	6 26	6 34	6 45	6 46	6 47	7 9	7 21	7 23	7 26	7 29	7 32	7 34	7 49	8 16	8 22	8 45	8 49	9 17	9 28	9 31	9 39	9 42	9 48	9 49	10 15	10 28	10 29	10 30	10 33	10 44	10 45	10 47	11 16	11 23	11 32	11 48	12 21	12 22	12 25	12 29	12 30	12 36	12 37	12 39	12 41	12 43	12 47	13 22	13 35	13 38	13 40	13 43	13 48	14 17	14 19	14 20	14 23	14 27	14 28	14 37	15 17	15 24	15 36	15 39	15 40	15 47	16 20	16 31	16 35	16 37	16 39	16 43	16 45	17 21	17 23	17 27	17 32	17 42	17 47	17 48	18 26	18 27	18 31	18 48	18 49	19 27	19 28	19 29	19 35	19 38	19 39	20 23	20 25	20 30	20 32	20 33	20 35	20 40	21 28	21 30	21 33	21 34	22 25	22 29	22 33	22 37	22 39	22 40	23 29	23 30	23 40	23 43	23 45	24 28	24 29	24 30	24 41	24 43	24 44	24 45	25 28	25 40	25 45	25 46	25 48	26 29	26 41	26 45	27 34	27 35	27 37	27 40	28 33	28 43	28 47	29 42	29 44	30 31	30 32	30 48	31 39	31 42	31 48	32 35	32 39	32 43	32 45	33 35	33 41	33 47	33 48	34 43	34 44	35 37	35 40	35 45	36 38	36 41	36 49	37 40	37 42	37 43	37 44	37 49	38 44	39 43	39 45	40 42	40 43	40 44	40 45	40 46	42 46	42 48	44 45	44 46	44 47	45 48	45 49	46 47	
0 2	0 7	0 9	0 18	0 19	0 24	0 27	0 28	0 35	0 42	0 48	1 3	1 7	1 17	1 20	1 21	1 22	1 25	1 30	1 34	1 43	2 6	2 8	2 10	2 11	2 14	2 19	2 28	2 31	2 33	2 41	2 45	2 46	3 4	3 17	3 21	3 26	3 32	3 36	3 37	3 39	3 40	3 42	3 43	4 5	4 16	4 19	4 20	4 23	4 31	4 39	4 40	5 11	5 12	5 15	5 17	5 19	5 23	5 27	5 31	5 40	5 42	5 49	6 10	6 14	6 26	6 34	6 45	6 46	6 47	7 9	7 21	7 23	7 26	7 29	7 32	7 34	7 49	8 16	8 22	8 45	8 49	9 17	9 28	9 31	9 39	9 42	9 48	9 49	10 15	10 28	10 29	10 30	10 33	10 44	10 45	10 47	11 16	11 23	11 32	11 48	12 21	12 22	12 25	12 29	12 30	12 36	12 37	12 39	12 41	12 43	12 47	13 22	13 35	13 38	13 40	13 43	13 48	14 17	14 19	14 20	14 23	14 27	14 28	14 37	15 17	15 24	15 36	15 39	15 40	15 47	16 20	16 31	16 35	16 37	16 39	16 43	16 45	17 21	17 23	17 27	17 32	17 42	17 47	17 48	18 26	18 27	18 31	18 48	18 49	19 27	19 28	19 29	19 35	19 38	19 39	20 23	20 25	20 30	20 32	20 33	20 35	20 40	21 28	21 30	21 33	21 34	22 25	22 29	22 33	22 37	22 39	22 40	23 29	23 30	23 40	23 43	23 45	24 28	24 29	24 30	24 41	24 43	24 44	24 45	25 28	25 40	25 45	25 46	25 48	26 29	26 41	26 45	27 34	27 35	27 37	27 40	28 33	28 43	28 47	29 42	29 44	30 31	30 32	30 48	31 39	31 42	31 48	32 35	32 39	32 43	32 45	33 35	33 41	33 47	33 48	34 43	34 44	35 37	35 40	35 45	36 38	36 41	36 49	37 40	37 42	37 43	37 44	37 49	38 44	39 43	39 45	40 42	40 43	40 44	40 45	40 46	42 46	42 48	44 45	44 46	44 47	45 48	45 49	46 47	
0 2	0 7	0 9	0 18	0 19	0 24	0 27	0 28	0 35	0 42	0 48	1 3	1 7	1 17	1 20	1 21	1 22	1 25	1 30	1 34	1 43	2 6	2 8	2 10	2 11	2 14	2 19	2 28	2 31	2 33	2 41	2 45	2 46	3 4	3 17	3 21	3 26	3 32	3 36	3 37	3 39	3 40	3 42	3 43	4 5	4 16	4 19	4 20	4 23	4 31	4 39	4 40	5 11	5 12	5 15	5 17	5 19	5 23	5 27	5 31	5 40	5 42	5 49	6 10	6 14	6 26	6 34	6 45	6 46	6 47	7 9	7 21	7 23	7 26	7 29	7 32	7 34	7 49	8 16	8 22	8 45	8 49	9 17	9 28	9 31	9 39	9 42	9 48	9 49	10 15	10 28	10 29	10 30	10 33	10 44	10 45	10 47	11 16	11 23	11 32	11 48	12 21	12 22	12 25	12 29	12 30	12 36	12 37	12 39	12 41	12 43	12 47	13 22	13 35	13 38	13 40	13 43	13 48	14 17	14 19	14 20	14 23	14 27	14 28	14 37	15 17	15 24	15 36	15 39	15 40	15 47	16 20	16 31	16 35	16 37	16 39	16 43	16 45	17 21	17 23	17 27	17 32	17 42	17 47	17 48	18 26	18 27	18 31	18 48	18 49	19 27	19 28	19 29	19 35	19 38	19 39	20 23	20 25	20 30	20 32	20 33	20 35	20 40	21 28	21 30	21 33	21 34	22 25	22 29	22 33	22 37	22 39	22 40	23 29	23 30	23 40	23 43	23 45	24 28	24 29	24 30	24 41	24 43	24 44	24 45	25 28	25 40	25 45	25 46	25 48	26 29	26 41	26 45	27 34	27 35	27 37	27 40	28 33	28 43	28 47	29 42	29 44	30 31	30 32	30 48	31 39	31 42	31 48	32 35	32 39	32 43	32 45	33 35	33 41	33 47	33 48	34 43	34 44	35 37	35 40	35 45	36 38	36 41	36 49	37 40	37 42	37 43	37 44	37 49	38 44	39 43	39 45	40 42	40 43	40 44	40 45	40 46	42 46	42 48	44 45	44 46	44 47	45 48	45 49	46 47	
0 2	0 7	0 9	0 18	0 19	0 24	0 27	0 28	0 35	0 42	0 48	1 3	1 7	1 17	1 20	1 21	1 22	1 25	1 30	1 34	1 43	2 6	2 8	2 10	2 11	2 14	2 19	2 28	2 31	2 33	2 41	2 45	2 46	3 4	3 17	3 21	3 26	3 32	3 36	3 37	3 39	3 40	3 42	3 43	4 5	4 16	4 19	4 20	4 23	4 31	4 39	4 40	5 11	5 12	5 15	5 17	5 19	5 23	5 27	5 31	5 40	5 42	5 49	6 10	6 14	6 26	6 34	6 45	6 46	6 47	7 9	7 21	7 23	7 26	7 29	7 32	7 34	7 49	8 16	8 22	8 45	8 49	9 17	9 28	9 31	9 39	9 42	9 48	9 49	10 15	10 28	10 29	10 30	10 33	10 44	10 45	10 47	11 16	11 23	11 32	11 48	12 21	12 22	12 25	12 29	12 30	12 36	12 37	12 39	12 41	12 43	12 47	13 22	13 35	13 38	13 40	13 43	13 48	14 17	14 19	14 20	14 23	14 27	14 28	14 37	15 17	15 24	15 36	15 39	15 40	15 47	16 20	16 31	16 35	16 37	16 39	16 43	16 45	17 21	17 23	17 27	17 32	17 42	17 47	17 48	18 26	18 27	18 31	18 48	18 49	19 27	19 28	19 29	19 35	19 38	19 39	20 23	20 25	20 30	20 32	20 33	20 35	20 40	21 28	21 30	21 33	21 34	22 25	22 29	22 33	22 37	22 39	22 40	23 29	23 30	23 40	23 43	23 45	24 28	24 29	24 30	24 41	24 43	24 44	24 45	25 28	25 40	25 45	25 46	25 48	26 29	26 41	26 45	27 34	27 35	27 37	27 40	28 33	28 43	28 47	29 42	29 44	30 31	30 32	30 48	31 39	31 42	31 48	32 35	32 39	32 43	32 45	33 35	33 41	33 47	33 48	34 43	34 44	35 37	35 40	35 45	36 38	36 41	36 49	37 40	37 42	37 43	37 44	37 49	38 44	39 43	39 45	40 42	40 43	40 44	40 45	40 46	42 46	42 48	44 45	44 46	44 47	45 48	45 49	46 47	
